1,1,1679,Aagh von, Peter,,04.12.42,WS 68/69,SS 75,1,01.10.1967 bis 30.09.1977 (Abgabe 2005),,,1
2,1,6828,Aaltonen, Hanna ,Rinne,13.05.48,SS 72,,1,01.10.1967 bis 30.09.1977 (Abgabe 2005),,,1
3,1,9837,Aanerud, Thomas,,01.01.50,WS 72/73,SS 73,1,01.10.1967 bis 30.09.1977 (Abgabe 2005),,,1
4,1,3531,Abb, Peter,,12.07.49,WS 7O/71,WS 71/72,1,01.10.1967 bis 30.09.1977 (Abgabe 2005),,,1
5,1,6890,Abdelilah, Barbara ,Bauer,18.04.195O,SS 72,WS 75/76,1,01.10.1967 bis 30.09.1977 (Abgabe 2005),,,1
6,1,138,Abediseid, Mohammad,,25.10.44,WS 67/68,SS 72,1,01.10.1967 bis 30.09.1977 (Abgabe 2005),,,1
7,1,13699,Abediseid, Mohammad,,25.10.44,WS 73/74,SS 75,1,01.10.1967 bis 30.09.1977 (Abgabe 2005),,,1
8,1,2964,Abel, Markus,,01.11.43,WS 69/70,SS 71,1,01.10.1967 bis 30.09.1977 (Abgabe 2005),,,1
9,1,3442,Abeling, Marlies,,09.08.49,SS 70,WS 73/74,1,01.10.1967 bis 30.09.1977 (Abgabe 2005),,,1
10,1,6078,Abenstein, Theobald,,18.12.45,WS 71/72,WS 74/75,1,01.10.1967 bis 30.09.1977 (Abgabe 2005),,,1
11,1,8488,Aberle, Eva,,10.07.52,WS 72/73,SS 75,1,01.10.1967 bis 30.09.1977 (Abgabe 2005),,,1
12,1,2215,Abfall, Johann,,24.12.49,WS 69/70,SS 72,1,01.10.1967 bis 30.09.1977 (Abgabe 2005),,,1
13,1,10459,Abfall, Johann,,24.12.49,WS 72/73,,1,01.10.1967 bis 30.09.1977 (Abgabe 2005),,,1
14,1,12865,Abfall, Johann,,24.12.49,WS 73/74,SS 77,1,01.10.1967 bis 30.09.1977 (Abgabe 2005),,,1
15,1,22352,Abold, Hilde,,21.03.51,SS 77,,1,01.10.1967 bis 30.09.1977 (Abgabe 2005),,,1
16,1,6079,Abraham, Ingrid Marie Elisabeth,,19.09.50,WS 71/72,SS 74,1,01.10.1967 bis 30.09.1977 (Abgabe 2005),,,1
17,1,7017,Absmayr, Robert,,23.07.50,SS 72,WS 74/75,1,01.10.1967 bis 30.09.1977 (Abgabe 2005),,,1
18,1,7901,Ach, Gertrude ,Pollner,09.06.51,WS 71/72,SS 74,1,01.10.1967 bis 30.09.1977 (Abgabe 2005),,,1
19,1,14689,Achatz, Albert,,21.02.53,WS 74/75,SS 77,1,01.10.1967 bis 30.09.1977 (Abgabe 2005),,,1
20,1,7019,Achatz, Franz,,07.07.51,WS 70/71,SS 73,1,01.10.1967 bis 30.09.1977 (Abgabe 2005),,,1
21,1,5340,Achatz, Gerhard,,05.04.47,WS 71/72,WS 72/73,1,01.10.1967 bis 30.09.1977 (Abgabe 2005),,,1
22,1,8366,Achatz, Gerhard,,05.04.47,SS 72,SS 75,1,01.10.1967 bis 30.09.1977 (Abgabe 2005),,,1
23,1,19592,Achatz, Manfred,,01.07.55,WS 75/76,,1,01.10.1967 bis 30.09.1977 (Abgabe 2005),,,1
24,1,7020,Achatz, Maria,,29.08.51,WS 71/72,SS 73,1,01.10.1967 bis 30.09.1977 (Abgabe 2005),,,1
25,1,9176,Achatz, Thomas,,21.09.52,WS 72/73,SS 77,1,01.10.1967 bis 30.09.1977 (Abgabe 2005),,,1
26,1,2216,Achmann, Hermann,,18.09.50,WS 69/7O,SS 77,1,01.10.1967 bis 30.09.1977 (Abgabe 2005),,,1
27,1,2217,Achter, Dietmar,,10.09.49,WS 69/70,SS 77,1,01.10.1967 bis 30.09.1977 (Abgabe 2005),,,1
28,1,5341,Ackeren van, Gerhard,,31.07.49,WS 71/72,,1,01.10.1967 bis 30.09.1977 (Abgabe 2005),,,1
29,1,4432,Ackermann, Eduard,,16.12.49,WS 7O/71,WS 76,1,01.10.1967 bis 30.09.1977 (Abgabe 2005),,,1
30,1,12867,Ackermann, Erich,,19.09.45,WS 73/74,SS 76,1,01.10.1967 bis 30.09.1977 (Abgabe 2005),,,1
31,1,13584,Ackermann, Gerhard,,22.04.49,WS 73/74,WS 75/76,1,01.10.1967 bis 30.09.1977 (Abgabe 2005),,,1
32,1,113,Ackermann, Isolde Renate,,04.05.43,WS 67/68,SS 69,1,01.10.1967 bis 30.09.1977 (Abgabe 2005),,,1
33,1,7021,Adacker, Hedwig,Appler,14.09.42,SS 72,SS 72,1,01.10.1967 bis 30.09.1977 (Abgabe 2005),,,1
34,1,20378,Adalem, Bernhard,,03.09.54,WS 76/77,SS 77,1,01.10.1967 bis 30.09.1977 (Abgabe 2005),,,1
35,1,8501,Adam, Christiane ,Astalosch,11.02.52,WS 72/73,SS 77,1,01.10.1967 bis 30.09.1977 (Abgabe 2005),,,1
36,1,9537,Adam, Katalin ,Herzczegh,04.11.43,WS 72/73,SS 75,1,01.10.1967 bis 30.09.1977 (Abgabe 2005),,,1
37,1,9177,Adam, Klaus,,22.06.49,WS 72/73,SS 75,1,01.10.1967 bis 30.09.1977 (Abgabe 2005),,,1
38,1,15780,Adam, Peter Karl Markus,,14.11.51,WS 74/75,SS 77,1,01.10.1967 bis 30.09.1977 (Abgabe 2005),,,1
39,1,15779,Adam, Reinhard Wolfgang,,17.08.51,WS 74/75,SS 76,1,01.10.1967 bis 30.09.1977 (Abgabe 2005),,,1
40,1,13585,Adam, Wolfgang,,21.05.45,WS 73/74,WS 74,1,01.10.1967 bis 30.09.1977 (Abgabe 2005),,,1
41,1,15782,Adamczyk, Agathe,,09.02.53,WS 74/75,SS 77,1,01.10.1967 bis 30.09.1977 (Abgabe 2005),,,1
42,1,14204,Adelkamp, Alfons,,15.02.51,WS 74/75,SS 75,1,01.10.1967 bis 30.09.1977 (Abgabe 2005),,,1
43,1,9538,Adermann, Vicki,,06.12.52,WS 72/73,15.06.73,1,01.10.1967 bis 30.09.1977 (Abgabe 2005),,,1
44,1,3296,Adler, Brigitte,,08.10.44,SS 7O,17.11.75,1,01.10.1967 bis 30.09.1977 (Abgabe 2005),,,1
45,1,5343,Adler, Christian,,31.05.51,WS 71/72,01.10.74,1,01.10.1967 bis 30.09.1977 (Abgabe 2005),,,1
46,1,327,Adler, Marianne ,Beigel,12.02.44,WS 67/68,SS 68,1,01.10.1967 bis 30.09.1977 (Abgabe 2005),,,1
47,1,10460,Adler, Otto,,26.09.50,WS 72/73,SS 75,1,01.10.1967 bis 30.09.1977 (Abgabe 2005),,,1
48,1,7024,Adlichhammer, Christa,,29.10.51,WS 71/72,SS 74,1,01.10.1967 bis 30.09.1977 (Abgabe 2005),,,1
49,1,14534,Adolf, Berta ,Schimmer,04.07.55,WS 74/75,WS 75/76,1,01.10.1967 bis 30.09.1977 (Abgabe 2005),,,1
50,1,5075,Adolf, Gustav,,24.09.47,SS 71,09.05.72,1,01.10.1967 bis 30.09.1977 (Abgabe 2005),,,1
51,1,1529,Adolf, Heinz,,30.10.46,WS 68/69,WS 73/74,1,01.10.1967 bis 30.09.1977 (Abgabe 2005),,,1
52,1,5068,Adolf, Margit ,Killermann,05.06.50,SS 71,23.11.72,1,01.10.1967 bis 30.09.1977 (Abgabe 2005),,,1
53,1,10723,Adolf, Walter,,21.06.49,SS 73,,1,01.10.1967 bis 30.09.1977 (Abgabe 2005),,,1
54,1,4433,Adolf, Wolfgang,,08.10.50,WS 70/71,WS 71 / 72,1,01.10.1967 bis 30.09.1977 (Abgabe 2005),,,1
55,1,2568,Adolphs, Dietmar,,17.12.42,WS 69/70,WS 74/75,1,01.10.1967 bis 30.09.1977 (Abgabe 2005),,,1
56,1,19716,Adukonu, Barthelemy,,24.08.42,WS 75/76,01.04.77,1,01.10.1967 bis 30.09.1977 (Abgabe 2005),,,1
57,1,1015,Afentakis, Spyros,,28.06.38,WS 68/69,WS 70/71,1,01.10.1967 bis 30.09.1977 (Abgabe 2005),,,1
58,1,139,Agala, Louis,,17.01.39,WS 67/68,WS 70/71,1,01.10.1967 bis 30.09.1977 (Abgabe 2005),,,1
59,1,20011,Agee, Jeffrey,,23.12.55,SS 76,,1,01.10.1967 bis 30.09.1977 (Abgabe 2005),,,1
60,1,7025,Agerer, Johann,,11.08.49,WS 71/72,SS 76,1,01.10.1967 bis 30.09.1977 (Abgabe 2005),,,1
61,1,13833,Agorianitis, Aristomenis,,18.02.39,SS 74,,1,01.10.1967 bis 30.09.1977 (Abgabe 2005),,,1
62,1,3119,Aguirre, Julian,,16.03.47,WS 69/70,WS 71 /72,1,01.10.1967 bis 30.09.1977 (Abgabe 2005),,,1
63,1,786,Ahlt, Michael,,12.05.43,SS 68,WS 68/69,1,01.10.1967 bis 30.09.1977 (Abgabe 2005),,,1
64,1,1828,Ahn, Dea-Ryan,,25.01.40,SS 69,22.11.71,1,01.10.1967 bis 30.09.1977 (Abgabe 2005),,,1
65,1,15534,Ahnert, Andreas,,23.04.55,WS 74/75,,1,01.10.1967 bis 30.09.1977 (Abgabe 2005),,,1
66,1,11,Aichinger, Friedrich,,21.03.42,WS 67/68,WS 70/71,1,01.10.1967 bis 30.09.1977 (Abgabe 2005),,,1
68,1,397,Aichinger, Josef,,02.05.39,WS 67/68,22.11.71,1,01.10.1967 bis 30.09.1977 (Abgabe 2005),,,1
69,1,7026,Aiginger, Helga,,09.12.50,WS 71/72,01.10.74,1,01.10.1967 bis 30.09.1977 (Abgabe 2005),,,1
70,1,10462,Aigner, Adolf,,17.09.50,WS 72/73,SS 75,1,01.10.1967 bis 30.09.1977 (Abgabe 2005),,,1
71,1,22105,Aigner, Adolf,,17.09.50,WS 76/77,30.09.77,1,01.10.1967 bis 30.09.1977 (Abgabe 2005),,,1
72,1,11417,Aigner , Alois,,06.10.54,WS 73/74,SS 75,1,01.10.1967 bis 30.09.1977 (Abgabe 2005),,,1
73,1,11835,Aigner, Franz,,29.07.53,WS 73/74,WS 76/77,1,01.10.1967 bis 30.09.1977 (Abgabe 2005),,,1
74,1,14871,Aigner, Franziska,,03.01.55,WS 74/75,30.09.77,1,01.10.1967 bis 30.09.1977 (Abgabe 2005),,,1
75,1,3535,Aigner, Gisela,,25.06.43,WS 70/71,19.06.72,1,01.10.1967 bis 30.09.1977 (Abgabe 2005),,,1
76,1,7027,Aigner, Gisela,,25.06.43,WS 70/71,SS 73,1,01.10.1967 bis 30.09.1977 (Abgabe 2005),,,1
77,1,1968,Aigner, Helmut,,19.12.47,SS 69,WS 75/76,1,01.10.1967 bis 30.09.1977 (Abgabe 2005),,,1
78,1,5910,Aigner, Josef,,22.03.50,WS 71/72,WS 76/77,1,01.10.1967 bis 30.09.1977 (Abgabe 2005),,,1
79,1,12870,Aigner Dr., Reinhard,,19.08.43,WS 73,SS 74,1,01.10.1967 bis 30.09.1977 (Abgabe 2005),,,1
80,1,15785,Aigner, Rita Ottilie,,08.10.54,WS 74/75,SS 77,1,01.10.1967 bis 30.09.1977 (Abgabe 2005),,,1
81,1,14206,Aigner, Rudolf,,21.08.53,WS 74/75,SS 76,1,01.10.1967 bis 30.09.1977 (Abgabe 2005),,,1
82,1,14207,Aimer, Ingrid,,26.02.55,WS 74/75,SS 75,1,01.10.1967 bis 30.09.1977 (Abgabe 2005),,,1
83,1,8490,Aimer, Norbert,,07.09.50,WS 72/73,SS 73,1,01.10.1967 bis 30.09.1977 (Abgabe 2005),,,1
84,1,17201,Aistleitner, Otto,,16.05.54,WS 75/76,SS 76,1,01.10.1967 bis 30.09.1977 (Abgabe 2005),,,1
85,1,12871,Aiwanger, Alfons,,10.08.50,WS 73/74,20.06.74,1,01.10.1967 bis 30.09.1977 (Abgabe 2005),,,1
86,1,19991,Aiwanger, Alfons,,10.08.50,SS 76,,1,01.10.1967 bis 30.09.1977 (Abgabe 2005),,,1
87,1,9539,Akindele, Olubusola,,26.11.49,WS 72/73,WS 73/74,1,01.10.1967 bis 30.09.1977 (Abgabe 2005),,,1
88,1,3536,Alber, Klaus,,11.08.48,WS 70/71,SS 75,1,01.10.1967 bis 30.09.1977 (Abgabe 2005),,,1
89,1,9179,Albers, Hinrich,,07.08.50,WS 72/73,SS 76,1,01.10.1967 bis 30.09.1977 (Abgabe 2005),,,1
90,1,20383,Albert, Elisabeth,,06.10.56,WS 76/77,30.09.77,1,01.10.1967 bis 30.09.1977 (Abgabe 2005),,,1
91,1,4434,Albert, Joachim,,10.11.46,WS 70/71,WS 72/73,1,01.10.1967 bis 30.09.1977 (Abgabe 2005),,,1
92,1,16304,Albert, Werner Oskar,,24.03.52,WS 74/75,,1,01.10.1967 bis 30.09.1977 (Abgabe 2005),,,1
93,1,8492,Alberth, Fritz,,31.01.52,WS 72/73,SS 76,1,01.10.1967 bis 30.09.1977 (Abgabe 2005),,,1
94,1,5344,Alberts, Sybille,,29.04.50,WS 71/72,SS 73,1,01.10.1967 bis 30.09.1977 (Abgabe 2005),,,1
95,1,864,Albig, Ernst,,11.06.44,SS 68,WS 68,1,01.10.1967 bis 30.09.1977 (Abgabe 2005),,,1
96,1,2218,Albrecht, Fritz,,27.08.50,WS 69/70,SS 75,1,01.10.1967 bis 30.09.1977 (Abgabe 2005),,,1
97,1,2674,Albrecht, Gerhard,,10.06.42,WS 69/70,SS 71,1,01.10.1967 bis 30.09.1977 (Abgabe 2005),,,1
98,1,2157,Albrecht, Gerhard Josef,,11.08.47,SS 69,SS 71,1,01.10.1967 bis 30.09.1977 (Abgabe 2005),,,1
99,1,11418,Albrecht, Johann,,31.01.47,WS 73/74,SS 74,1,01.10.1967 bis 30.09.1977 (Abgabe 2005),,,1
100,1,3537,Albrecht, Rudolf,,04.01.49,WS 70/71,,1,01.10.1967 bis 30.09.1977 (Abgabe 2005),,,1
101,1,7028,Albrecht, Rudolf,,04.01.49,SS 71,SS 73,1,01.10.1967 bis 30.09.1977 (Abgabe 2005),,,1
102,1,1354,Alexy, Silvia ,Schlums,25.01.48,WS 68/69,WS 73/74,1,01.10.1967 bis 30.09.1977 (Abgabe 2005),,,1
103,1,6285,Alferi, Sonja,,09.05.50,WS 71/72,12.06.72,1,01.10.1967 bis 30.09.1977 (Abgabe 2005),,,1
104,1,7029,Alferi, Sonja,,09.05.50,WS 71/72,SS 75,1,01.10.1967 bis 30.09.1977 (Abgabe 2005),,,1
105,1,19702,Alferi, Sonja,,09.05.50,WS 75/76,SS 77,1,01.10.1967 bis 30.09.1977 (Abgabe 2005),,,1
106,1,12872,Alfery, Maria,,24.05.53,WS 73/74,SS 76,1,01.10.1967 bis 30.09.1977 (Abgabe 2005),,,1
107,1,17202,Alig, Bernd,,13.01.55,WS 75/76,,1,01.10.1967 bis 30.09.1977 (Abgabe 2005),,,1
108,1,14872,Alkofer, Elisabeth,,04.05.54,WS 74/75,SS 77,1,01.10.1967 bis 30.09.1977 (Abgabe 2005),,,1
109,1,2219,Allesch, Erwin,,07.09.50,WS 69/70,WS 76/77,1,01.10.1967 bis 30.09.1977 (Abgabe 2005),,,1
110,1,1829,Allgaier, Johann,,03.06.45,SS 69,22.11.71,1,01.10.1967 bis 30.09.1977 (Abgabe 2005),,,1
111,1,10464,Allgeier, Claus,,30.08.50,WS 72/73,SS 73,1,01.10.1967 bis 30.09.1977 (Abgabe 2005),,,1
112,1,6845,Allihn, Axel,,08.09.46,SS 72,SS 74,1,01.10.1967 bis 30.09.1977 (Abgabe 2005),,,1
113,1,6203,Allingham, Ronald,,19.08.51,WS 71/72,07.07.72,1,01.10.1967 bis 30.09.1977 (Abgabe 2005),,,1
114,1,13967,Allmendinger, Rolf,,09.12.48,SS 74,,1,01.10.1967 bis 30.09.1977 (Abgabe 2005),,,1
115,1,15052,Allmesberger, Edith,,10.01.54,WS 74/75,SS 77,1,01.10.1967 bis 30.09.1977 (Abgabe 2005),,,1
116,1,21718,Alm, Peter,,02.01.56,WS 76/77,01.04.77,1,01.10.1967 bis 30.09.1977 (Abgabe 2005),,,1
117,1,13888,Almer, Heinrich,,02.07.48,SS 74,30.09.77,1,01.10.1967 bis 30.09.1977 (Abgabe 2005),,,1
118,1,13586,Almer, Manfred,,18.12.46,WS 73/74,SS 75,1,01.10.1967 bis 30.09.1977 (Abgabe 2005),,,1
119,1,4953,Almstedt, Andreas,,06.02.49,WS 70/71,SS 73,1,01.10.1967 bis 30.09.1977 (Abgabe 2005),,,1
120,1,5345,Alt, Bernhard,,15.08.51,WS 71/72,WS 73/74,1,01.10.1967 bis 30.09.1977 (Abgabe 2005),,,1
121,1,4415,Alt, Renate ,Würf,27.04.51,WS 70/71,01.10.75,1,01.10.1967 bis 30.09.1977 (Abgabe 2005),,,1
122,1,3538,Alt, Robert,,13.10.49,WS 70/71,30.09.77,1,01.10.1967 bis 30.09.1977 (Abgabe 2005),,,1
123,1,3539,Altbauer, Maria-Magdalena,,21.03.49,WS 70/71,SS 74,1,01.10.1967 bis 30.09.1977 (Abgabe 2005),,,1
124,1,2895,Altehenger, Heinz-Bernhard,,09.09.46,WS 69/70,WS 72/73,1,01.10.1967 bis 30.09.1977 (Abgabe 2005),,,1
125,1,10571,Altenburger, Engelbert,,28.01.51,SS 73 ,WS 73,1,01.10.1967 bis 30.09.1977 (Abgabe 2005),,,1
126,1,3443,Altenburger, Josef,,21.08.47,SS 70 ,WS 70,1,01.10.1967 bis 30.09.1977 (Abgabe 2005),,,1
127,1,20129,Altenkirch, Klaus Walter,,05.09.54,WS 76,,1,01.10.1967 bis 30.09.1977 (Abgabe 2005),,,1
129,1,8493,Alter, Gisela,,29.01.53,WS 72 ,20.06.74,1,01.10.1967 bis 30.09.1977 (Abgabe 2005),,,1
130,1,12084,Alterthum, Karen,,21.12.52,WS 73  ,SS 75,1,01.10.1967 bis 30.09.1977 (Abgabe 2005),,,1
131,1,18121,Althammer , Georg,,28.01.55,WS 75  ,SS 77,1,01.10.1967 bis 30.09.1977 (Abgabe 2005),siehe auch Ablage 4,,1
132,1,3540,Althammer, Josef,,25.09.50,WS 70  ,WS 71,1,01.10.1967 bis 30.09.1977 (Abgabe 2005),,,1
133,1,13889,Althammer, Josef,,25.09.50,SS 74 ,SS 76,1,01.10.1967 bis 30.09.1977 (Abgabe 2005),,,1
134,1,4435,Althaus, Günther,,04.09.50,WS 70,,1,01.10.1967 bis 30.09.1977 (Abgabe 2005),,,1
135,1,7030,Althaus, Günther,,04.09.50,SS 71 ,SS 73,1,01.10.1967 bis 30.09.1977 (Abgabe 2005),,,1
136,1,12873,Althaus, Hans-Joachim,,18.04.49,WS 73  ,SS 75,1,01.10.1967 bis 30.09.1977 (Abgabe 2005),,,1
137,1,12875,Altinger, Eva-Maria,,05.02.53,WS 73 ,SS 76,1,01.10.1967 bis 30.09.1977 (Abgabe 2005),,,1
138,1,16678,Altmann, Dieter Franz,,21.04.56,WS 74 ,SS 77,1,01.10.1967 bis 30.09.1977 (Abgabe 2005),,,1
139,1,11836,Altmann, Gisela,,15.01.53,WS 73 ,SS 76,1,01.10.1967 bis 30.09.1977 (Abgabe 2005),,,1
140,1,2080,Altmann, Hugo ,,10.12.39,SS 69,,1,01.10.1967 bis 30.09.1977 (Abgabe 2005),,,1
141,1,3542,Altmann, Marianne,,13.02.50,WS 7o,,1,01.10.1967 bis 30.09.1977 (Abgabe 2005),,,1
142,1,5346,Altmann, Marianne,,13.02.50,WS 71  ,SS 72,1,01.10.1967 bis 30.09.1977 (Abgabe 2005),,,1
143,1,334,Altmann, Michael Hanns,,09.05.44,WS 67 ,WS 68,1,01.10.1967 bis 30.09.1977 (Abgabe 2005),,,1
144,1,5020,Altmann, Michael Hanns,,09.05.44,SS 71  ,21.06.74,1,01.10.1967 bis 30.09.1977 (Abgabe 2005),,,1
145,1,10825,Altmann, Robert,,06.04.51,SS 73 ,SS 76,1,01.10.1967 bis 30.09.1977 (Abgabe 2005),,,1
146,1,12876,Altmann, Theresa,,21.1o.1953,7S 73 ,SS 76,1,01.10.1967 bis 30.09.1977 (Abgabe 2005),,,1
147,1,11022,Altmann, Titanja,,15.04.53,VS 73  ,SS 77,1,01.10.1967 bis 30.09.1977 (Abgabe 2005),,,1
148,1,13669,Altmeyer, Yves-Marie,,21.01.53,WS 73,,1,01.10.1967 bis 30.09.1977 (Abgabe 2005),,,1
149,1,17203,Altschäffl, Thomas,,26.01.55,WS 75 ,WS 76,1,01.10.1967 bis 30.09.1977 (Abgabe 2005),,,1
150,1,16306,Alzinger, Franz Xaver,,02.02.55,WS 74 ,SS 76,1,01.10.1967 bis 30.09.1977 (Abgabe 2005),,,1
